<?xml version="1.0" encoding="UTF-8" standalone="no"?>
<!-- Created with Inkscape (http://www.inkscape.org/) -->

<svg
   version="1.1"
   id="svg3800"
   width="320.07874"
   height="342.44901"
   viewBox="0 0 320.07874 342.44901"
   sodipodi:docname="rose-book.png"
   xmlns:inkscape="http://www.inkscape.org/namespaces/inkscape"
   xmlns:sodipodi="http://sodipodi.sourceforge.net/DTD/sodipodi-0.dtd"
   xmlns="http://www.w3.org/2000/svg"
   xmlns:svg="http://www.w3.org/2000/svg">
  <defs
     id="defs3804" />
  <sodipodi:namedview
     id="namedview3802"
     pagecolor="#ffffff"
     bordercolor="#000000"
     borderopacity="0.25"
     inkscape:showpageshadow="2"
     inkscape:pageopacity="0.0"
     inkscape:pagecheckerboard="0"
     inkscape:deskcolor="#d1d1d1"
     showgrid="false" />
  <g
     inkscape:groupmode="layer"
     inkscape:label="Image"
     id="g3806"
     transform="translate(-30.132958,-35.603761)">
    <path
       style="fill:#000000"
       d="m 191.56474,371.30276 c -1.1807,-12.00361 -1.74115,-15.73561 -2.4759,-16.48665 -0.39636,-0.40516 -28.70018,-0.75896 -62.89736,-0.78621 -37.824499,-0.0301 -62.405052,-0.41901 -62.759715,-0.99287 -0.348899,-0.56453 -1.379734,-0.4496 -2.567154,0.28621 -1.601536,0.99242 -2.149545,0.96377 -2.841836,-0.1486 -0.540272,-0.8681 -1.361661,-1.06389 -2.219488,-0.52905 -2.306162,1.43786 -23.628886,1.39274 -24.828361,-0.0525 -0.712693,-0.85875 -0.962887,-30.72704 -0.788645,-94.14903 l 0.255203,-92.8913 4.5,-1.08603 c 2.797084,-0.67506 5.946513,-0.7616 8.322447,-0.22869 3.254079,0.72987 4.071887,0.55363 5.5,-1.18528 0.971725,-1.18319 3.570922,-2.35873 6.177553,-2.79392 4.419277,-0.73783 4.505438,-0.82555 4.803163,-4.88998 0.263685,-3.59973 0.747014,-4.34929 3.711592,-5.75608 2.039253,-0.96769 4.429385,-1.36116 5.949997,-0.97951 2.240908,0.56243 2.615622,0.26762 3.16757,-2.49212 0.691551,-3.45775 1.872318,-4.69892 2.895415,-3.04351 0.662657,1.0722 0.668759,29.85465 0.01239,58.45512 -1.112193,48.46259 -1.737531,105.57735 -1.180255,107.79771 0.526077,2.09606 1.353101,2.65582 4.394088,2.97406 2.45577,0.257 1.554898,0.44992 -2.6155,0.56013 l -6.361538,0.1681 0.62131,-12.75 c 0.341721,-7.0125 0.883787,-36.6 1.204592,-65.75 0.320805,-29.15 0.688406,-58.4 0.816891,-65 0.128485,-6.6 0.02736,-13.6875 -0.224722,-15.75 -0.421702,-3.45031 -0.712248,-3.75 -3.635532,-3.75 -6.815016,0 -6.32032,-6.45251 -6.708379,87.5 l -0.351082,85 2.5,-0.23896 c 18.627264,-1.78045 39.526136,-0.18944 56.500006,4.30129 13.19421,3.49075 24.55006,6.66071 30,8.37444 3.3,1.03768 7.27341,2.169 8.82979,2.51404 2.50896,0.55622 2.75642,0.39616 2.18261,-1.41173 -0.81434,-2.56578 0.5939,-2.61281 5.35145,-0.17873 17.44909,8.92743 21.14776,10.52804 22.10834,9.56746 0.56721,-0.56721 1.12795,-4.23802 1.24609,-8.15735 0.21379,-7.09286 0.19282,-7.15434 -4.50175,-13.1996 -2.59409,-3.34045 -4.71653,-6.52294 -4.71653,-7.0722 0,-1.65588 3.00988,-1.12782 6.09563,1.06943 l 2.90437,2.0681 0.11069,-9.3181 c 0.12882,-10.84396 0.16876,-9.16488 -0.66842,-28.10195 -0.74374,-16.82332 -0.28625,-16.30111 -9.44227,-10.77808 -4.88617,2.9474 -9,4.35006 -9,3.06866 0,-1.39563 11.08111,-11.00119 12.83059,-11.12207 3.61341,-0.24967 4.15634,-0.42021 4.40823,-1.38465 0.14365,-0.55 -1.12544,-1.13535 -2.8202,-1.30078 -2.72974,-0.26646 -3.465,-1.09378 -6.44319,-7.25 -1.849,-3.82207 -3.72488,-6.94922 -4.16862,-6.94922 -0.44375,0 -0.80681,-0.46156 -0.80681,-1.02568 0,-1.5411 5.60532,1.65779 9.74203,5.55964 1.99746,1.88407 3.85549,3.20185 4.12894,2.92841 0.43216,-0.43216 0.34199,-6.9742 -0.30271,-21.96237 -0.0946,-2.2 -0.2612,-6.73618 -0.37016,-10.0804 -0.19786,-6.07316 -0.20584,-6.08804 -6.6981,-12.49602 -3.575,-3.5286 -6.5,-6.70677 -6.5,-7.06262 0,-1.92937 3.76546,-1.60241 7.63035,0.66256 2.40331,1.40843 4.39967,2.20432 4.43637,1.76863 0.50436,-5.98837 -0.24868,-27.64055 -1.03307,-29.70364 -1.3764,-3.62022 -6.56851,-11.11472 -11.14594,-16.08851 l -3.68124,-4 10.23313,-0.13205 c 13.96198,-0.18016 23.19841,-1.89884 35.33128,-6.57429 11.39683,-4.39181 15.13081,-7.03497 19.22039,-13.60547 1.78622,-2.86982 4.31562,-5.22288 7.13769,-6.64009 2.40407,-1.2073 5.34576,-3.635 6.53708,-5.39489 2.46729,-3.64482 3.82369,-10.03486 2.80881,-13.23244 -0.60908,-1.91905 -1.18331,-2.09551 -5.08077,-1.56131 -2.41674,0.33126 -4.39408,0.47041 -4.39408,0.30924 0,-0.16117 0.85491,-2.06506 1.8998,-4.23087 1.679,-3.48017 2.97744,-8.888425 5.81095,-24.203755 l 0.78925,-4.265927 4.83865,3.45381 c 8.84833,6.315899 16.90725,16.483161 19.48141,24.578042 1.33584,4.2008 3.48086,24.70409 2.71426,25.94447 -0.29745,0.48128 -0.2662,1.59065 0.0694,2.46529 0.50788,1.32349 2.50076,1.59024 11.8808,1.59024 8.79833,0 11.54364,0.32903 12.51546,1.5 1.14952,1.38509 0.69405,1.94088 -1.30993,1.59844 -3.82929,-0.65433 -22.1008,-0.002 -23.09666,0.82404 -0.69511,0.57689 -1.86978,2.88489 -2.61036,5.12888 -1.56995,4.75698 -7.54093,11.89424 -12.53044,14.97793 -5.44526,3.36536 -13.37622,5.98381 -20.11809,6.64211 -6.09713,0.59535 -6.1935,0.65316 -8.69307,5.21531 -3.7435,6.83254 -14.23495,17.02145 -20.47989,19.88931 -4.29588,1.9728 -6.4888,2.36836 -11.22895,2.02549 -3.23979,-0.23435 -6.13558,-0.67115 -6.4351,-0.97067 -1.15453,-1.15452 0.84879,-3.51547 7.06888,-8.33084 12.72518,-9.85136 19.37135,-15.85438 24.22361,-21.8795 5.75813,-7.14995 7.21,-9.69487 7.21,-12.63809 0,-3.27306 -2.00675,-1.98473 -7,4.49397 -5.89953,7.6546 -13.38199,15.14745 -21.96597,21.99647 -14.47281,11.54762 -14.27249,11.16036 -13.60079,26.29324 1.48413,33.43632 1.80339,39.23391 2.16055,39.23391 0.2139,0 2.47525,-1.59255 5.02523,-3.53899 2.54998,-1.94644 4.86663,-3.30869 5.14811,-3.02722 0.28147,0.28148 -0.70387,2.10556 -2.18966,4.05353 -1.48578,1.94796 -3.88519,6.12271 -5.33201,9.27722 -2.33176,5.08394 -2.6045,6.8146 -2.40094,15.23546 0.27298,11.29291 0.88031,20.05817 1.42773,20.60558 0.21722,0.21723 2.12126,-2.11158 4.2312,-5.17512 5.23411,-7.59968 22.4161,-22.84425 23.98228,-21.27806 0.46228,0.46228 -3.9399,18.75218 -4.61138,19.15908 -0.20589,0.12477 -4.0983,2.00141 -8.64979,4.17031 -7.72688,3.68206 -13.24996,7.82615 -12.04126,9.03484 0.28848,0.28848 3.62011,-1.28445 7.40363,-3.49541 10.87765,-6.35653 12.56451,-6.68159 18.71165,-3.60577 6.55764,3.28123 9.05901,5.19694 8.32869,6.37863 -1.38999,2.24904 -24.09371,6.11461 -36.3991,6.19737 -1.00329,0.007 -1.21444,5.49785 -1,26.00672 0.14951,14.29899 0.6461,25.99899 1.10353,26 0.45744,0.001 2.70744,-1.5098 5,-3.35735 3.90766,-3.14912 21.05533,-13.64082 22.29463,-13.64082 0.31072,0 1.75942,-0.8284 3.21932,-1.8409 8.00089,-5.54889 41.69567,-16.3964 46.70208,-15.035 0.52376,0.14242 3.33694,-0.27723 6.25151,-0.93257 6.13588,-1.37965 15.05758,-1.60135 13.65078,-0.33922 -0.5225,0.46876 -6.8,1.80251 -13.95,2.96388 -15.93453,2.58822 -32.24178,6.40964 -36.57349,8.57058 -1.77858,0.88728 -3.79936,1.61323 -4.49062,1.61323 -1.21329,0 -14.64904,7.22827 -17.17488,9.23987 -3.2637,2.59924 3.1455,2.24758 9.73899,-0.53436 2.76997,-1.16871 15.09487,-3.70551 18.00304,-3.70551 1.58341,0 3.12811,-0.40318 3.43266,-0.89596 0.69326,-1.12172 16.48249,-3.41963 19.69072,-2.86573 3.01149,0.51994 1.65757,1.02275 -8.12642,3.01796 -25.93973,5.28976 -38.12503,8.61883 -38.78407,10.59595 -0.47589,1.42767 3.0972,1.47131 11.16877,0.13642 34.26666,-5.66708 54.32661,-7.05022 71.95343,-4.96122 5.95646,0.70592 11.40604,1.8596 12.11018,2.56375 0.71083,0.71082 1.67421,0.90173 2.16598,0.42922 0.48714,-0.46807 1.96998,-1.00164 3.29519,-1.18571 1.49473,-0.20762 2.524,-1.09398 2.71111,-2.33468 0.29595,-1.96233 0.47576,-63.28795 0.39142,-133.5 -0.0234,-19.525 -0.39534,-36.05527 -0.82641,-36.73394 -0.43108,-0.67866 -2.73211,-1.47873 -5.1134,-1.77793 l -4.32962,-0.54399 0.64982,35.77793 c 0.52188,28.7339 1.71719,100.88681 2.04227,123.27793 0.0431,2.96834 -0.36016,4.5 -1.18476,4.5 -0.96051,0 -1.3665,-6.83356 -1.75262,-29.5 -0.2764,-16.225 -0.7076,-38.05 -0.95823,-48.5 -0.50005,-20.84978 -1.75832,-79.18278 -1.93055,-89.5 l -0.10851,-6.5 -5.29834,-0.30394 -5.29833,-0.30393 0.59625,26.30393 c 0.32794,14.46717 0.77962,27.20394 1.00372,28.30394 0.40981,2.01147 1.54588,57.13622 1.83919,89.24125 0.0986,10.78884 -0.21673,17.33808 -0.84249,17.5 -1.53399,0.39692 -3.14802,-42.51013 -4.01527,-106.74125 -0.26735,-19.8 -0.77558,-41.66166 -1.12942,-48.58146 -0.43189,-8.44629 -0.28213,-13.21202 0.45564,-14.5 1.0022,-1.74959 1.15595,-1.6425 1.74595,1.21615 0.59225,2.86955 1.0578,3.18919 5.50394,3.77899 5.36775,0.71206 5.96675,1.27825 7.48466,7.07472 0.91493,3.49385 1.47692,4.0642 4.5,4.56688 4.31445,0.71741 7.57961,2.45241 8.83417,4.69419 0.80012,1.42973 2.16051,1.66972 7.94895,1.40231 11.03707,-0.50989 10.75255,-0.95605 11.1842,17.53809 0.20295,8.69557 0.30796,36.28513 0.23335,61.31013 -0.0746,25.025 -0.16051,59.50791 -0.19091,76.62868 l -0.0553,31.12868 -2.75,1.1089 c -4.32033,1.74212 -26.04762,2.25537 -91.5,2.16145 -57.5698,-0.0826 -60.75587,0.006 -60.86221,1.69256 -0.0617,0.97885 -0.0271,6.39223 0.0769,12.02973 0.15348,8.32031 -0.0808,10.25 -1.2442,10.25 -1.03723,0 -1.61673,-1.86516 -2.09722,-6.75 z m 149.37675,-21.25 c 0,-0.55 -0.42344,-1 -0.94098,-1 -0.51754,0 -1.2191,0.45 -1.55902,1 -0.33992,0.55 0.0835,1 0.94098,1 0.85746,0 1.55902,-0.45 1.55902,-1 z m -193.5,-3.02476 c -3.41168,-0.68406 -4.5751,-0.25772 -2.61034,0.95657 0.73245,0.45268 2.29442,0.55798 3.47104,0.234 1.89447,-0.52165 1.79596,-0.6579 -0.8607,-1.19057 z m 169.5,1.02476 c 0,-0.55 -1.0125,-0.99311 -2.25,-0.98469 -1.81944,0.0124 -1.96296,0.20082 -0.75,0.98469 1.93876,1.25292 3,1.25292 3,0 z m 27.6306,-1.52025 c -0.33906,-0.88358 -1.0915,-1.31293 -1.6721,-0.9541 -0.72494,0.44804 -0.68251,1.10197 0.13544,2.08754 1.45303,1.7508 2.38084,1.06645 1.53666,-1.13344 z m -73.6306,0.52025 c -1.96549,-1.2702 -5,-1.2702 -5,0 0,0.55 1.4625,0.99311 3.25,0.98469 2.46622,-0.0116 2.88826,-0.24909 1.75,-0.98469 z m 61.45729,-2.0691 c -0.74709,-1.20882 -4.45729,-1.21233 -4.45729,-0.004 0,1.01295 3.03759,1.95869 4.26631,1.32829 0.42147,-0.21624 0.50742,-0.81207 0.19098,-1.32407 z m 4.54271,0.48577 c 0,-1.76593 -2.15276,-1.45839 -2.77083,0.39583 -0.21771,0.65312 0.31666,1.1875 1.1875,1.1875 0.87083,0 1.58333,-0.7125 1.58333,-1.58333 z M 45.134399,344.94951 c 1.583272,-0.84734 2.255501,-0.78935 2.898095,0.25 0.679808,1.09955 1.171525,1.01839 2.622826,-0.43291 1.559913,-1.55992 1.596161,-1.90803 0.286164,-2.74823 -2.76344,-1.7724 -8.927448,0.48088 -8.984687,3.28439 -0.021,1.02856 0.757354,0.94203 3.177602,-0.35325 z m 249.572631,-1.27743 c -0.95395,-0.72439 -1.44145,-1.61008 -1.08333,-1.9682 0.35812,-0.35811 -0.52232,-0.65112 -1.95653,-0.65112 -1.4342,0 -2.88258,0.44485 -3.2186,0.98855 -0.34962,0.56569 0.0493,0.73519 0.93255,0.39624 0.90927,-0.34892 1.79639,0.0667 2.15893,1.01146 0.33848,0.88206 1.57977,1.58944 2.75843,1.57195 1.98484,-0.0295 2.01499,-0.12902 0.40855,-1.34888 z M 73.941484,343.05276 c 0,-0.55 -0.45,-1 -1,-1 -0.55,0 -1,0.45 -1,1 0,0.55 0.45,1 1,1 0.55,0 1,-0.45 1,-1 z m 24.75,0.31067 c -0.9625,-0.25152 -2.5375,-0.25152 -3.5,0 -0.9625,0.25153 -0.175,0.45733 1.75,0.45733 1.925,0 2.712505,-0.2058 1.75,-0.45733 z m 42.250006,-0.31067 c -0.825,-0.53316 -2.85,-0.94464 -4.5,-0.9144 -2.57572,0.0472 -2.71714,0.17652 -1,0.9144 1.1,0.47269 3.125,0.88417 4.5,0.9144 1.97037,0.0433 2.18222,-0.15039 1,-0.9144 z m 122,0 c 0,-0.55 -0.45,-1 -1,-1 -0.55,0 -1,0.45 -1,1 0,0.55 0.45,1 1,1 0.55,0 1,-0.45 1,-1 z m 5.5,0 c 0.33992,-0.55 -0.30852,-1 -1.44098,-1 -1.13246,0 -2.05902,0.45 -2.05902,1 0,0.55 0.64844,1 1.44098,1 0.79254,0 1.7191,-0.45 2.05902,-1 z m 13.95898,-0.0664 c -0.31736,-0.5135 -2.23796,-0.92674 -4.268,-0.91832 -2.3614,0.01 -3.21699,0.31588 -2.37517,0.84969 1.82383,1.15652 7.35081,1.21362 6.64317,0.0686 z M 42.482603,341.98623 c 0.362533,-0.58659 0.453499,-1.27219 0.202145,-1.52354 -0.697478,-0.69748 -3.743264,0.68337 -3.743264,1.69706 0,1.25179 2.74331,1.11736 3.541119,-0.17352 z m 113.458887,-1.36162 c 0,-2.00233 -38.04432,-12.85852 -49.38898,-14.09347 -2.68894,-0.29271 -6.963941,-0.99914 -9.500008,-1.56985 -2.53606,-0.57071 -11.696762,-0.91684 -20.357116,-0.76919 -10.018256,0.17081 -16.127921,-0.11336 -16.795747,-0.78119 -1.155644,-1.15564 -1.418635,-127.43288 -0.310243,-148.96535 0.462121,-8.97753 0.309818,-12.30089 -0.589191,-12.85651 -0.666827,-0.41212 -3.245092,0.027 -5.729477,0.97577 -4.151623,1.58552 -4.458964,1.93797 -3.798898,4.35651 1.289601,4.72522 1.677941,163.17553 0.403683,164.71092 -0.862893,1.03972 -0.740228,1.75717 0.515052,3.01245 1.314332,1.31433 2.801255,1.52157 7.349308,1.02431 15.45424,-1.68967 29.236627,-1.74535 43.201617,-0.17452 7.975,0.89705 19.45,2.08794 25.5,2.64641 6.05,0.55848 13.25,1.38951 16,1.84673 5.5612,0.92463 13.5,1.29921 13.5,0.63698 z m -55,-2.18843 c 0,-0.21088 -1.376561,-0.38342 -3.059023,-0.38342 -1.682459,0 -2.8182,0.38965 -2.523867,0.86589 0.497867,0.80557 5.58289,0.36612 5.58289,-0.48247 z m 215,-0.38342 c 0,-0.55 -1.37656,-1 -3.05902,-1 -1.7847,0 -2.80156,0.41658 -2.44098,1 0.33992,0.55 1.71648,1 3.05902,1 1.34254,0 2.44098,-0.45 2.44098,-1 z m 19.97503,-2.42497 c -1.34507,-1.34507 -2.34543,0.0173 -1.54477,2.10382 0.57449,1.49711 0.81466,1.54289 1.58189,0.30148 0.54563,-0.88283 0.5309,-1.83728 -0.0371,-2.4053 z m -57.97503,1.42497 c 0,-0.55 -0.47656,-1 -1.05902,-1 -0.58246,0 -0.7809,0.45 -0.44098,1 0.33992,0.55 0.81648,1 1.05902,1 0.24254,0 0.44098,-0.45 0.44098,-1 z M 47.695247,329.60198 c 0.05721,-3.05207 -0.313988,-5.54922 -0.824876,-5.54922 -0.510888,0 -0.966387,1.2375 -1.01222,2.75 -0.04583,1.5125 -0.214002,3.875 -0.373708,5.25 -0.326654,2.81235 0.222912,4.26273 1.351015,3.56553 0.415678,-0.25691 0.802583,-2.96425 0.859789,-6.01631 z m -4.316926,-4.29922 c -0.408485,-4.8125 -0.748881,-9.3125 -0.756436,-10 -0.0076,-0.6875 -0.276234,-1.24982 -0.597068,-1.2496 -0.498418,3.5e-4 -0.569112,6.64948 -0.183399,17.2496 0.05504,1.5125 0.590462,2.75 1.189835,2.75 0.759916,0 0.864967,-2.64847 0.347068,-8.75 z m -5.939135,-9.28545 c 0.0016,-9.58425 -0.357038,-14.0783 -1.147702,-14.38254 -1.249515,-0.48078 -1.396459,0.9442 -1.486781,14.41799 -0.103177,15.39149 0.0013,16.53543 1.384483,15.1523 0.877356,-0.87736 1.248384,-5.38542 1.25,-15.18775 z m 308.502304,4.03545 c 0,-3.14017 -1.64918,-4.07778 -2.63837,-1.5 -0.71526,1.86394 0.2261,4.5 1.60699,4.5 0.56726,0 1.03138,-1.35 1.03138,-3 z m -298.000006,-1 c 0,-0.55 -0.45,-1 -1,-1 -0.55,0 -1,0.45 -1,1 0,0.55 0.45,1 1,1 0.55,0 1,-0.45 1,-1 z m -0.07028,-13.30902 c -0.0841,-3.81823 -1.356267,-7.43121 -2.156532,-6.1246 -0.314503,0.51349 -0.441461,2.50862 -0.28213,4.43362 0.159331,1.925 0.339025,4.08906 0.39932,4.80902 0.232051,2.77083 2.105944,-0.0942 2.039342,-3.11804 z m -11.791963,-10.21495 -0.810178,-2.97603 -0.491432,3.25569 c -0.518254,3.43338 0.0019,4.80626 1.321153,3.48701 0.434849,-0.43485 0.426054,-2.12985 -0.01954,-3.76667 z m 301.854399,1.01912 c 0.45173,0.27919 0.59396,-0.36188 0.31605,-1.4246 -0.5721,-2.18771 -2.94892,-3.4609 -3.82242,-2.04754 -0.31805,0.51461 -0.0321,1.95626 0.63553,3.20366 0.75126,1.40373 1.37303,1.79031 1.63165,1.01444 0.22983,-0.68947 0.78746,-1.02515 1.23919,-0.74596 z m 7.70084,-4.22612 c -0.25354,-0.97297 -0.47766,-0.41903 -0.49804,1.23097 -0.0204,1.65 0.18706,2.44606 0.46099,1.76903 0.27392,-0.67703 0.29059,-2.02703 0.0371,-3 z m -5.5689,-0.5357 c -0.98762,-0.98026 -1.10248,-0.8654 -0.5598,0.5598 0.37553,0.98622 0.93469,1.54122 1.24258,1.23333 0.30789,-0.30789 6.4e-4,-1.11479 -0.68278,-1.79313 z M 37.255696,280.8374 c 0.895144,-0.5692 0.879406,-0.75777 -0.06421,-0.76933 -0.6875,-0.008 -1.278524,-0.80281 -1.313386,-1.76531 -0.05329,-1.47122 -0.18277,-1.43139 -0.812791,0.25 -0.412172,1.1 -0.50188,4.475 -0.19935,7.5 l 0.550053,5.5 0.326949,-4.98067 c 0.179822,-2.73937 0.860553,-5.31997 1.512737,-5.73469 z m 4.368902,3.02786 c -0.319226,-0.79773 -0.556183,-0.56078 -0.604167,0.60417 -0.04342,1.05416 0.192928,1.64479 0.52522,1.3125 0.332291,-0.33229 0.367818,-1.1948 0.07895,-1.91667 z m 294.316892,0.6875 c 0,-0.825 -0.45,-1.5 -1,-1.5 -0.55,0 -1,0.675 -1,1.5 0,0.825 0.45,1.5 1,1.5 0.55,0 1,-0.675 1,-1.5 z M 42.941484,277.77124 c 0,-3.09693 -0.03155,-3.11844 -1.499794,-1.02224 -0.824887,1.17769 -1.227733,2.85024 -0.895215,3.71677 0.940501,2.4509 2.395009,0.81449 2.395009,-2.69453 z m -7,-4.71848 c 0,-1.1 -0.422033,-2 -0.937851,-2 -0.515818,0 -0.870056,0.9 -0.787196,2 0.08286,1.1 0.504894,2 0.937851,2 0.432958,0 0.787196,-0.9 0.787196,-2 z m 11.662281,-3.25 c -0.277413,-0.6875 -0.504386,-0.125 -0.504386,1.25 0,1.375 0.226973,1.9375 0.504386,1.25 0.277412,-0.6875 0.277412,-1.8125 0,-2.5 z m 289.337725,-8.91667 c 0,-3.56731 -1.23355,-3.0675 -1.73869,0.70448 -0.18135,1.35421 0.13566,2.46219 0.70448,2.46219 0.56882,0 1.03421,-1.425 1.03421,-3.16667 z M 48.120003,255.12751 c -0.251122,-2.63326 -0.882074,-4.07475 -1.783554,-4.07475 -1.704537,0 -1.756083,1.35935 -0.213329,5.62576 1.548543,4.28242 2.483906,3.55591 1.996883,-1.55101 z M 36.641506,236.11358 c -0.184316,-5.74155 -0.754723,-10.57834 -1.267571,-10.74841 -0.815236,-0.27036 -1.065639,15.68053 -0.418952,26.68759 0.497841,8.4736 2.011108,-5.82815 1.686523,-15.93918 z m 2.962259,11.68918 c -0.277413,-0.6875 -0.504386,-0.125 -0.504386,1.25 0,1.375 0.226973,1.9375 0.504386,1.25 0.277412,-0.6875 0.277412,-1.8125 0,-2.5 z m 297.795015,-13.6809 c 0.31644,-0.512 0.11799,-1.21356 -0.44098,-1.55902 -0.55897,-0.34546 -1.01631,0.0734 -1.01631,0.9309 0,1.75653 0.60006,2.01516 1.45729,0.62812 z M 47.545651,218.32359 c -1.016516,-1.01651 -1.855248,0.51389 -1.021218,1.86338 0.630035,1.01942 0.865577,1.02021 1.204302,0.004 0.231595,-0.69479 0.149207,-1.53513 -0.183084,-1.86742 z m -11.604167,-6.82985 c 0,-1.34254 -0.45,-2.44098 -1,-2.44098 -0.55,0 -1,1.37656 -1,3.05902 0,1.7847 0.416577,2.80156 1,2.44098 0.55,-0.33992 1,-1.71648 1,-3.05902 z m 5,0.059 c 0,-0.825 -0.435877,-1.5 -0.968615,-1.5 -0.532739,0 -0.709594,0.675 -0.393011,1.5 0.316582,0.825 0.752459,1.5 0.968615,1.5 0.216156,2e-5 0.393011,-0.67498 0.393011,-1.49998 z m -0.192502,-12.74998 c -0.169124,-2.3375 -0.757498,-4.13282 -1.307498,-3.98959 -0.911378,0.23733 -0.98874,1.04847 -0.618938,6.48959 0.06542,0.9625 0.594812,1.75 1.176436,1.75 0.625683,0 0.931935,-1.73543 0.75,-4.25 z m 7.192502,-0.19098 c 0,-0.79254 -0.45,-1.7191 -1,-2.05902 -0.55,-0.33992 -1,0.30852 -1,1.44098 0,1.13246 0.45,2.05902 1,2.05902 0.55,0 1,-0.64844 1,-1.44098 z m 286.000006,-5.05902 c 0,-1.375 -0.45,-2.5 -1,-2.5 -0.55,0 -1,1.125 -1,2.5 0,1.375 0.45,2.5 1,2.5 0.55,0 1,-1.125 1,-2.5 z M 47.941484,189.99374 c 0,-1.06754 -0.45,-1.94098 -1,-1.94098 -0.55,0 -1,1.15156 -1,2.55902 0,1.45136 0.432842,2.2915 1,1.94098 0.55,-0.33992 1,-1.49148 1,-2.55902 z m -6,-4.38196 c 0,-0.24254 -0.45,-0.7191 -1,-1.05902 -0.55,-0.33992 -1,-0.14148 -1,0.44098 0,0.58246 0.45,1.05902 1,1.05902 0.55,0 1,-0.19844 1,-0.44098 z M 339.94149,173.63455 c 0,-0.23002 0.26055,-1.09719 0.57899,-1.92704 0.43481,-1.13309 0.0613,-1.37344 -1.5,-0.96516 -2.37619,0.62139 -2.8465,3.31041 -0.57899,3.31041 0.825,0 1.5,-0.1882 1.5,-0.41821 z M 41.858151,171.41208 c 0.229166,-0.19762 0.148844,-0.62714 -0.178494,-0.95448 -0.942081,-0.94208 -6.819578,0.65443 -6.185614,1.6802 0.497255,0.80458 5.213194,0.2668 6.364108,-0.72572 z M 154.414,332.68746 c -1.08488,-0.75092 -3.09751,-1.71291 -4.47251,-2.13776 -1.375,-0.42486 -4.77995,-1.8109 -7.56655,-3.0801 -2.78661,-1.2692 -7.62411,-3.26454 -10.75,-4.43409 -3.1259,-1.16955 -5.68345,-2.54412 -5.68345,-3.0546 0,-1.20683 -0.20275,-1.23754 6.61973,1.00273 8.66385,2.84491 25.73464,10.63224 26.16995,11.93817 0.51798,1.55392 -1.92519,1.4213 -4.31717,-0.23435 z m 120.52749,-7.29159 c 0,-0.503 0.7875,-0.95474 1.75,-1.00387 0.9625,-0.0491 4,-0.37183 6.75,-0.7171 11.58401,-1.4544 20.56536,-1.84813 26.83701,-1.1765 10.1947,1.09176 7.05226,2.70419 -4.67976,2.40125 -5.58649,-0.14425 -14.76975,0.11416 -20.40725,0.57424 -6.13787,0.50092 -10.25,0.46962 -10.25,-0.078 z m -159.64963,-7.31262 c -7.26882,-2.14726 -28.9052,-5.42366 -30.265298,-4.58307 -0.520785,0.32186 -1.229533,0.12786 -1.574997,-0.43111 -2.158525,-3.49257 34.381135,1.85463 38.454215,5.62738 1.84829,1.712 0.98692,1.63214 -6.61392,-0.6132 z m 179.64963,-7.03049 c 0,-0.55 1.32344,-1 2.94098,-1 1.61754,0 3.2191,0.45 3.55902,1 0.3678,0.59512 -0.82295,1 -2.94098,1 -1.95746,0 -3.55902,-0.45 -3.55902,-1 z m -64.64768,-30.45864 c -7.08231,-4.96935 -7.73269,-4.05595 6.90838,-9.70214 6.5961,-2.54373 8.8901,-2.98151 13.04486,-2.48944 2.77271,0.32839 5.50325,1.05903 6.06786,1.62364 0.56462,0.56462 1.83658,1.02658 2.82658,1.02658 3.11988,0 1.97581,1.77703 -3.45,5.35875 -7.85489,5.18522 -14.78945,8.65017 -17.14894,8.56872 -1.15558,-0.0399 -4.86752,-2.01364 -8.24874,-4.38611 z m -77.85232,-3.21587 c -5.32052,-0.45 -19.5,-4.38855 -19.5,-5.4164 0,-2.4947 21.28583,-13.90909 25.93802,-13.90909 1.64336,0 5.27126,0.9 8.06198,2 2.79072,1.1 5.93082,2 6.978,2 3.57344,0 2.85459,1.53958 -4.09459,8.76951 -7.45415,7.75529 -6.67548,7.46162 -17.38341,6.55598 z m 73.18098,-11.07549 c 0.78013,-3.1625 1.67914,-7.42878 1.99779,-9.48062 0.47401,-3.05219 1.32877,-4.16392 4.7003,-6.11331 4.1735,-2.4131 14.45244,-6.15789 15.1067,-5.50363 0.78728,0.78728 -3.60485,19.30481 -4.75244,20.03665 -1.58005,1.00762 -16.6508,6.81091 -17.68749,6.81091 -0.4308,0 -0.14499,-2.5875 0.63514,-5.75 z m -100.68098,2.92971 c -2.28843,-1.03698 -12.13796,-7.77556 -15.38038,-10.52252 l -2.88037,-2.44023 2.38037,-1.47006 c 9.09839,-5.61891 14.84205,-8.7469 16.06119,-8.7469 0.78055,0 1.84669,-0.42725 2.36919,-0.94946 0.59965,-0.5993 2.05636,-0.45642 3.95,0.38746 1.65,0.73529 5.25,2.34732 8,3.58227 2.75,1.23496 7.025,3.1196 9.5,4.18809 4.04679,1.74706 4.32375,2.0721 2.75,3.22742 -0.9625,0.70659 -1.75,1.78347 -1.75,2.39308 0,0.6096 -0.67865,0.84795 -1.5081,0.52966 -1.9577,-0.75124 -7.66296,1.98163 -14.1992,6.80154 -5.23006,3.85672 -6.52025,4.27597 -9.2927,3.01965 z m 133.15145,-2.39704 -5.34854,-2.1254 2.34854,-1.8064 c 1.2917,-0.99352 2.84634,-1.8164 3.45475,-1.82863 0.60841,-0.0122 3.16891,-1.59724 5.69001,-3.52224 4.54653,-3.47153 8.01056,-4.21999 12.10168,-2.61475 1.69568,0.66534 1.31634,1.43027 -3.56055,7.17971 -3.00213,3.53927 -6.33118,6.52685 -7.39788,6.63907 -1.0667,0.11222 -4.34631,-0.7524 -7.28801,-1.92136 z m -9.60837,-7.27544 c 0.06,-1.37102 0.39675,-2.78039 0.74829,-3.13193 0.35154,-0.35155 0.93976,-3.29606 1.30715,-6.54337 0.45946,-4.06109 1.2029,-6.19047 2.38153,-6.82125 2.03056,-1.08673 16.01414,-4.35729 16.49033,-3.85686 0.18117,0.1904 -0.12249,2.94659 -0.67482,6.12487 -1.0996,6.32749 -2.24665,7.56866 -12.58957,13.62261 -6.40836,3.75096 -7.80542,3.86143 -7.66291,0.60593 z m -79.00054,-2.08594 c -6.2532,-2.18388 -12.54254,-6.84849 -12.54254,-9.3024 0,-0.41672 -1.8,-3.17022 -4,-6.11889 -2.2,-2.94867 -4,-5.68108 -4,-6.07203 0,-0.39095 3.2625,0.32816 7.25,1.59802 14.19273,4.51984 13.65765,4.12157 17.90034,13.32358 2.11731,4.59226 3.84966,8.52976 3.84966,8.75 0,0.66539 -1.20008,0.35631 -8.45746,-2.17828 z m -67.73584,-6.19728 c -1.873731,-2.54667 -14.73,-13.22401 -15.92263,-13.22401 -0.551161,0 -0.723995,-0.45 -0.384076,-1 0.339919,-0.55 4.424749,-1 9.0774,-1 8.420996,0 20.795316,2.55955 26.288156,5.43754 l 2.57752,1.3505 -3.62585,1.51497 c -1.99421,0.83324 -6.02539,3.13093 -8.95818,5.10598 -6.05404,4.07703 -7.21654,4.31012 -9.05234,1.81502 z m 43.1933,-3.33099 c -5.225,-2.22502 -10.28244,-4.28735 -11.23875,-4.58295 -0.95632,-0.2956 -1.49714,-0.92839 -1.20184,-1.4062 0.29531,-0.47781 -1.62225,-2.89403 -4.26124,-5.36937 -4.47728,-4.19962 -4.63097,-4.50219 -2.29817,-4.52417 1.375,-0.013 6.03267,0.5142 10.35038,1.17145 6.66816,1.01503 8.09154,1.58075 9.45174,3.75661 0.88074,1.40888 2.79182,4.13661 4.24684,6.06161 4.22827,5.59404 6.2484,9.00239 5.31605,8.96926 -0.47576,-0.0169 -5.14001,-1.85122 -10.36501,-4.07624 z m 129,2.14536 c 0,-0.52889 1.9125,-2.96533 4.25,-5.41431 2.3375,-2.44899 5.6,-5.92414 7.25,-7.72256 2.65252,-2.89113 3.03361,-3.04288 3.29014,-1.31012 0.15958,1.07786 -0.78957,3.9904 -2.10922,6.47232 -4.59223,8.6368 -4.89123,8.93629 -8.92147,8.93629 -2.0677,0 -3.75945,-0.43273 -3.75945,-0.96162 z m -0.98635,-6.57254 c 0.0329,-4.74229 1.18658,-6.29468 5.80857,-7.8163 2.54914,-0.83921 4.74585,-1.41481 4.88156,-1.2791 0.1357,0.13571 -2.21713,2.68001 -5.22852,5.65399 -4.26025,4.20734 -5.47223,4.97101 -5.46161,3.44141 z m -147.01365,-3.19238 c -0.825,-0.249 -3.03739,-1.14404 -4.91643,-1.98898 -8.6258,-3.87876 -20.26371,-5.7126 -31.796065,-5.01028 -2.866869,0.1746 -5.04002,0.14498 -4.829224,-0.0658 1.311235,-1.31124 9.785451,-2.21 21.031019,-2.23052 l 12.9893,-0.0237 3.29481,3.49232 c 1.81214,1.92078 4.06321,3.92234 5.00237,4.44792 1.97165,1.10339 1.44031,2.04793 -0.77578,1.37907 z m 13,-46.56707 c -4.78502,-1.81628 -10.96238,-5.89719 -14.14277,-9.34304 -3.46451,-3.75368 -9.85723,-13.8927 -9.85723,-15.63381 0,-4.03757 -3.49342,-12.09837 -7.10003,-16.38276 -2.24401,-2.66573 -4.96787,-6.86275 -6.05302,-9.32671 -1.08515,-2.46397 -2.507146,-4.81958 -3.15998,-5.23469 -1.826466,-1.16138 -13.936793,-0.92332 -19.606557,0.38542 -5.619417,1.29711 -7.317576,0.63779 -4.811626,-1.86816 1.267577,-1.26758 4.203341,-1.75496 12.673142,-2.10393 l 11.023397,-0.45418 -0.620159,-10.13571 c -0.805885,-13.17116 -0.563621,-13.42843 10.939153,-11.61664 4.51863,0.71173 12.112,1.49788 16.87417,1.74702 7.27612,0.38065 8.73377,0.74081 9.12997,2.25589 0.35324,1.35077 -0.25079,1.94738 -2.40849,2.37892 -3.41063,0.68212 -3.45516,1.36271 -0.57837,8.84023 3.30424,8.58861 11.21809,16.80767 24.50528,25.45035 12.41277,8.07392 19.09429,14.38298 22.72576,21.45891 2.74783,5.35416 2.4917,5.94957 -4.53264,10.53693 -12.90473,8.42765 -27.01867,12.07548 -35,9.04596 z M 99.941489,115.05276 c 0,-0.55 -0.450005,-1 -1.000005,-1 -0.55,0 -1,0.45 -1,1 0,0.55 0.45,1 1,1 0.55,0 1.000005,-0.45 1.000005,-1 z m 64.500001,32.94795 c -11.54889,-3.14519 -17.60368,-7.45725 -26.95686,-19.19795 l -3.78406,-4.75 h 2.65401 c 1.46477,0 7.00788,2.62598 12.37046,5.86035 13.55659,8.17649 16.86518,9.73245 23.69123,11.14147 9.18219,1.89537 19.02126,0.59177 31.982,-4.23738 10.89191,-4.0583 13.68016,-5.55459 22.54322,-12.0976 2.475,-1.82713 8.1,-5.24253 12.5,-7.58977 4.4,-2.34725 8.9,-5.00911 10,-5.91524 1.79258,-1.47665 1.77946,-1.38898 -0.12644,0.84532 -1.16955,1.37107 -3.28639,4.36368 -4.70409,6.65024 -1.69145,2.72809 -4.00138,4.78555 -6.71881,5.98448 -2.83287,1.24986 -4.92808,3.16984 -6.63198,6.07731 -3.34584,5.70925 -11.21567,12.62724 -15.95829,14.02815 -17.71142,5.23178 -38.58,6.54502 -50.86039,3.20062 z m 6.5,-13.30076 c -6.8586,-2.06287 -10,-3.49833 -10,-4.56948 0,-0.53449 -2.17873,-3.85029 -4.84162,-7.36846 -2.66288,-3.51816 -6.27935,-9.95449 -8.03658,-14.30295 -7.31011,-18.089665 -10.66202,-23.406298 -14.75666,-23.406298 -2.21551,0 -1.59172,2.153702 2.23168,7.705103 1.97825,2.872332 4.90808,9.150075 6.51072,13.950555 1.60265,4.80047 3.62004,9.80582 4.48309,11.123 2.3184,3.53832 1.09968,3.73394 -3.31937,0.5328 -6.23693,-4.51801 -10.25308,-9.77001 -12.76342,-16.69096 -1.30497,-3.597789 -4.35022,-8.910701 -6.90586,-12.04834 -5.6522,-6.939367 -7.60198,-10.625879 -7.60198,-14.373275 0,-4.384332 1.93688,-9.160334 3.47548,-8.569918 1.73681,0.666475 3.13392,-1.634303 1.57678,-2.596664 -1.72772,-1.067791 5.4806,-6.454886 10.44774,-7.808058 2.2,-0.599334 7.27979,-1.979547 11.28843,-3.06714 4.00863,-1.087593 8.28363,-2.596922 9.5,-3.354065 1.21636,-0.757142 3.42235,-1.900744 4.90219,-2.541336 l 2.69062,-1.164713 -3.21579,5.338352 c -1.76868,2.936094 -5.45446,7.027116 -8.19061,9.091161 -2.73616,2.064045 -5.16585,3.918475 -5.39931,4.120956 -0.23346,0.202482 -0.32248,4.635249 -0.19782,9.850594 0.39739,16.625343 4.34164,26.845966 13.63954,35.343726 3.10416,2.83702 6.08769,5.15822 6.63006,5.15822 0.54237,0 2.41861,1.0826 4.16941,2.40578 1.7508,1.32317 9.00481,4.9172 16.12001,7.98672 7.1152,3.06952 13.35101,5.99524 13.85736,6.50159 3.04872,3.04872 -17.98795,5.25135 -26.29409,2.7531 z m 28.5,-10.21878 c -2.75,-2.96715 -6.17721,-6.18987 -7.61601,-7.16161 -1.43881,-0.97174 -5.28379,-3.79974 -8.54439,-6.28445 l -5.92837,-4.51765 10.29719,0.38117 c 6.39426,0.2367 14.69347,-0.25505 21.89601,-1.29739 6.37935,-0.92321 11.77115,-1.50623 11.98178,-1.2956 0.70752,0.70752 0.74004,14.2237 0.0394,16.39096 -0.69811,2.15952 -13.0926,9.4427 -15.77188,9.26777 -0.74458,-0.0486 -3.60377,-2.51605 -6.35377,-5.4832 z m -14.5,-3.63553 c -2.475,-1.14568 -5.625,-2.55533 -7,-3.13256 -5.90754,-2.48 -14.84331,-8.28264 -19.19487,-12.46462 -6.4398,-6.188839 -8.66483,-11.901843 -10.01917,-25.725214 -1.05308,-10.74852 -1.00476,-11.573666 0.79647,-13.601765 3.20021,-3.603268 9.53978,-5.828312 17.02962,-5.977006 6.22414,-0.123567 20.38795,1.750442 20.38795,2.697522 0,0.211159 -1.49523,1.008671 -3.32273,1.772249 -4.75064,1.984943 -10.46395,7.300048 -12.82794,11.933858 -1.71109,3.354005 -1.97875,5.466321 -1.69109,13.345455 0.18797,5.148414 0.0344,9.360402 -0.34129,9.359982 -1.27309,-10e-4 -7.56668,-8.472942 -10.21565,-13.750779 -3.03566,-6.048301 -5.91003,-7.208266 -4.95595,-2 1.77405,9.684393 8.48449,17.564128 26.10465,30.653338 13.50134,10.02953 14.30139,11.07943 5.25,6.88954 z m 42,-11.83337 c 0,-6.64895 0.37059,-8.54174 2.14128,-10.936729 1.45787,-1.971868 2.34339,-5.070787 2.77452,-9.70951 0.34828,-3.747298 1.01906,-7.428845 1.49063,-8.181216 2.98445,-4.761593 2.29527,-13.282063 -1.34047,-16.572361 -4.95025,-4.479913 -16.64327,-3.898807 -21.34351,1.060705 -1.22235,1.289777 -3.2494,2.352824 -4.50457,2.362326 -3.3343,0.02524 -8.51571,-2.371459 -11.43239,-5.288146 -3.63075,-3.630741 -11.63879,-5.765368 -24.07106,-6.416387 -5.93206,-0.310635 -10.65706,-0.947313 -10.5,-1.414841 0.15706,-0.467528 2.53557,-3.517123 5.28557,-6.776878 3.6157,-4.285928 6.66116,-6.702417 11,-8.728208 5.47585,-2.556655 7.00463,-2.801893 17.5,-2.807245 13.0959,-0.0067 21.11081,1.720049 30.45081,6.560303 8.64298,4.479041 14.10074,9.347747 16.99947,15.164742 2.19843,4.411685 2.54953,6.432876 2.54835,14.670281 -0.003,19.016222 -5.7504,38.883024 -12.44659,43.021494 -1.80846,1.11769 -3.57249,2.03216 -3.92007,2.03216 -0.34759,0 -0.63197,-3.61822 -0.63197,-8.04049 z m -51,-64.959508 c 0,-0.55 -0.19844,-1 -0.44098,-1 -0.24254,0 -0.7191,0.45 -1.05902,1 -0.33992,0.55 -0.14148,1 0.44098,1 0.58246,0 1.05902,-0.45 1.05902,-1 z m 2.74962,57.283708 c -1.51272,-0.22915 -3.21605,-1.28672 -3.78519,-2.350169 -1.14287,-2.13548 -0.0311,-2.60026 1.81169,-0.75742 0.64687,0.64687 3.77437,1.73415 6.95,2.416189 5.22042,1.12121 5.39046,1.23375 1.77388,1.17405 -2.2,-0.0363 -5.23767,-0.25351 -6.75038,-0.48265 z m 18.25038,-0.65287 c 3.575,-0.63431 7.625,-0.934759 9,-0.66766 1.74322,0.33863 0.83509,0.69048 -3,1.16233 -9.2079,1.1329 -13.28061,0.79712 -6,-0.49467 z m 25.34165,-7.684857 c 3.6539,-7.372008 4.80221,-16.751771 2.30458,-18.82462 -1.71385,-1.422366 -1.51182,-1.880475 -3.69502,8.378639 -1.40295,6.592592 -5.62556,13.838941 -7.6186,13.07414 -0.8229,-0.315777 -2.22266,-0.57414 -3.11056,-0.57414 -1.1997,0 -0.84137,-0.834829 1.39496,-3.25 1.65514,-1.7875 3.54341,-4.508674 4.19616,-6.047053 1.59765,-3.765248 1.44064,-10.634972 -0.31317,-13.702947 -2.00726,-3.511329 -1.92726,-3.703888 2.08952,-5.029544 3.77805,-1.24687 8.80091,-0.721247 11.06517,1.157927 1.76431,1.464246 1.70547,5.599354 -0.15469,10.871617 -0.825,2.338299 -1.5,6.153329 -1.5,8.477843 0,4.566857 -3.3697,10.777086 -6.13686,11.309996 -1.21049,0.23312 -0.87447,-1.09456 1.47851,-5.841858 z m -40.80695,1.880562 c -8.3693,-3.20836 -9.84104,-14.425172 -2.76158,-21.047436 3.6322,-3.397635 8.511,-5.779107 11.83936,-5.779107 3.45703,0 10.99587,4.386314 12.51464,7.281375 1.14555,2.183658 1.13119,2.189606 -0.91115,0.377405 -1.74438,-1.547818 -3.27299,-1.765457 -9.59263,-1.36577 -6.97328,0.441026 -7.84485,0.755345 -12.03767,4.34122 -4.7269,4.04265 -5.96835,7.973355 -3.23478,10.242017 2.25737,1.873451 9.93703,2.413376 16.10728,1.132437 7.03378,-1.460207 10.51425,-4.483848 10.60522,-9.213229 0.0611,-3.179478 0.098,-3.208731 1.04703,-0.831212 0.541,1.355333 0.84998,4.280333 0.68661,6.5 -0.27311,3.710802 -0.67718,4.22435 -5.01824,6.377974 -5.44287,2.700238 -14.84703,3.669934 -19.24409,1.984326 z m 3.76916,-11.326543 c 0.17029,-2.604641 0.62445,-3.041296 3.44614,-3.313358 2.36526,-0.228054 3.25,0.09616 3.25,1.190983 0,0.827387 -0.46115,1.789347 -1.02478,2.137688 -0.56362,0.34834 -0.90112,0.0374 -0.75,-0.690983 0.52437,-2.527266 -3.6075,-1.417254 -4.37627,1.17567 -0.69036,2.328438 -0.72776,2.294126 -0.54509,-0.5 z m 24.69614,-3.065741 c 0,-1.411158 -0.48646,-3.474699 -1.08102,-4.585647 -1.45423,-2.71726 -0.12062,-3.844854 1.66278,-1.40591 1.61729,2.21178 1.92743,8.557298 0.41824,8.557298 -0.55,0 -1,-1.154584 -1,-2.565741 z m -13,0.0067 c 0,-0.857459 0.45734,-1.276365 1.01631,-0.930902 0.55897,0.345464 0.75742,1.047021 0.44098,1.559017 -0.85723,1.387068 -1.45729,1.128435 -1.45729,-0.628091 z"
       id="path3826"
       inkscape:export-filename="path3826.svg"
       inkscape:export-xdpi="96"
       inkscape:export-ydpi="96" />
  </g>
</svg>
